<<<<<<< HEAD
C1
=======
<<<<<<< HEAD
<<<<<<< HEAD
<<<<<<< HEAD
C1
=======
C3
>>>>>>> b0dec39 (MixedBag_2 C3)
=======
C2
>>>>>>> 810eb9b (MixedBag_2 C2)
>>>>>>> 01ea741 (MixedBag_2 C2'')
=======
C3
>>>>>>> b0dec39 (MixedBag_2 C3)
>>>>>>> 8b0a80f (MixedBag_2 C3')
